{
  "project_info": {
    "project_number": "211181788142",
    "firebase_url": "https://code-74bf6.firebaseio.com",
    "project_id": "code-74bf6",
    "storage_bucket": "code-74bf6.appspot.com"
  },
  "client": [
    {
      "client_info": {
        "mobilesdk_app_id": "1:211181788142:android:b9c75cb404c7179c",
        "android_client_info": {
          "package_name": "com.homebrewsoft.code"
        }
      },
      "oauth_client": [
        {
          "client_id": "211181788142-flmg9u73t206b1ghtsmnjkins4gpdouo.apps.googleusercontent.com",
          "client_type": 1,
          "android_info": {
            "package_name": "com.homebrewsoft.code",
            "certificate_hash": "c6696e266e2455d0910f73fbe21ef8c1caef414f"
          }
        },
        {
          "client_id": "211181788142-q9lcj8hi6jh79f67s7nlku2qjldcb3un.apps.googleusercontent.com",
          "client_type": 3
        }
      ],
      "api_key": [
        {
          "current_key": "AIzaSyBs6br4QyNslaVbhzQOc5aUHvT2kVpd73M"
        }
      ],
      "services": {
        "analytics_service": {
          "status": 1
        },
        "appinvite_service": {
          "status": 2,
          "other_platform_oauth_client": [
            {
              "client_id": "211181788142-q9lcj8hi6jh79f67s7nlku2qjldcb3un.apps.googleusercontent.com",
              "client_type": 3
            }
          ]
        },
        "ads_service": {
          "status": 2
        }
      }
    }
  ],
  "configuration_version": "1"
}